<?xml version="1.0"?>
<svg xmlns="http://www.w3.org/2000/svg" xmlns:xlink="http://www.w3.org/1999/xlink" version="1.1" id="Capa_1" x="0px" y="0px" viewBox="0 0 512 512" style="enable-background:new 0 0 512 512;" xml:space="preserve" width="40px" height="20px"><g><g>
	<g>
		<g>
			<circle cx="256" cy="256" r="64" data-original="#000000" class="active-path" data-old_color="#000000" fill="#B4B6B7"/>
			<circle cx="256" cy="448" r="64" data-original="#000000" class="active-path" data-old_color="#000000" fill="#B4B6B7"/>
			<circle cx="256" cy="64" r="64" data-original="#000000" class="active-path" data-old_color="#000000" fill="#B4B6B7"/>
		</g>
	</g>
</g></g> </svg>
